### <Channel : eemm> ; Systematic type is : NOMINAL ###

WeightSum = 0.0135383
xAOD = 10000 ; 0.013509 +/- 0.116228
BadBatMan = 10000 ; 0.013509 +/- 0.116228
FourMore = 3561 ; 0.00489887 +/- 0.0699919
Quad = 3456 ; 0.00455649 +/- 0.0675018
Kine = 3428 ; 0.00451624 +/- 0.067203
nCalo = 3428 ; 3428 +/- 58.5491
dR4l = 3329 ; 0.00436657 +/- 0.0660801
JPsiVeto = 3329 ; 0.00436657 +/- 0.0660801
EleLoose = 3039 ; 0.00400051 +/- 0.0632496
IP = 2980 ; 0.00392452 +/- 0.062646
Iso = 2589 ; 0.00344167 +/- 0.0586658
OnShell = 2084 ; 0.0027721 +/- 0.0526507
Filter = 2084 ; 0.0027721 +/- 0.0526507
TwoJet = 1629 ; 0.00230098 +/- 0.0479686
TwoSigJet = 1239 ; 1239 +/- 35.1994
Trigger = 1239 ; 0.0017598 +/- 0.04195
dEtaJJ = 1077 ; 0.00152107 +/- 0.0390009
MJJ = 1025 ; 0.00145185 +/- 0.0381032
Cleaning = 0 ; 0 +/- 0

 ======== border ======== 

