0.189329
0.189329
0.132758
0.106143
0.0899424
0.09342
0.101275
0.12831
0.199108
0.199108
0.189329
0.189329
0.0720012
0.0626588
0.0742519
0.0583011
0.151926
0.0685972
0.199108
0.199108
0.189329
0.189329
0.0914009
0.101181
0.107501
0.0952231
0.10213
0.179648
0.199108
0.199108
0.189329
0.189329
1.09201
-0.198395
0.176642
0.0975898
0.112412
0.311617
0.199108
0.199108
0.189329
0.189329
0.881412
-0.246974
0.230988
0.31013
0.270826
0.11852
0.199108
0.199108
0.189329
0.189329
0.787025
0.787025
0.787025
0.572244
0.572244
0.572244
0.199108
0.199108
0.189329
0.189329
0.787025
0.787025
0.787025
0.572244
0.572244
0.572244
0.199108
0.199108
0.189329
0.189329
1.3825
1.3825
1.3825
0.132126
0.132126
0.132126
0.199108
0.199108
0.189329
0.189329
1.3825
1.3825
1.3825
0.132126
0.132126
0.132126
0.199108
0.199108
0.189329
0.189329
1.3825
1.3825
1.3825
0.132126
0.132126
0.132126
0.199108
0.199108
