NOMINAL : 8.69746 error: 0 0%
EG_RESOLUTION_ALL__1down : 8.69954 error: -0.00207878 -0.023901%
EG_RESOLUTION_ALL__1up : 8.69711 error: 0.000342848 0.00394193%
EG_SCALE_ALL__1down : 8.6972 error: 0.000251936 0.00289667%
EG_SCALE_ALL__1up : 8.69924 error: -0.00178721 -0.0205486%
EG_SCALE_AF2__1down : 8.69746 error: 0 0%
EG_SCALE_AF2__1up : 8.69746 error: 0 0%
EL_EFF_ID_TOTAL_1NPCOR_PLUS_UNCOR__1down : 8.35572 error: 0.34174 3.9292%
EL_EFF_ID_TOTAL_1NPCOR_PLUS_UNCOR__1up : 9.05243 error: -0.35497 -4.08131%
EL_EFF_Iso_TOTAL_1NPCOR_PLUS_UNCOR__1down : 8.63293 error: 0.0645305 0.741947%
EL_EFF_Iso_TOTAL_1NPCOR_PLUS_UNCOR__1up : 8.7627 error: -0.0652464 -0.750178%
EL_EFF_Reco_TOTAL_1NPCOR_PLUS_UNCOR__1down : 8.64837 error: 0.0490905 0.564424%
EL_EFF_Reco_TOTAL_1NPCOR_PLUS_UNCOR__1up : 8.74681 error: -0.0493517 -0.567427%
JET_EtaIntercalibration_NonClosure__1up : 8.69991 error: -0.00245567 -0.0282343%
JET_EtaIntercalibration_NonClosure__1down : 8.69558 error: 0.00187644 0.0215746%
JET_GroupedNP_1__1up : 8.91475 error: -0.21729 -2.49832%
JET_GroupedNP_1__1down : 8.48579 error: 0.21167 2.43371%
JET_GroupedNP_2__1up : 8.73198 error: -0.034526 -0.396966%
JET_GroupedNP_2__1down : 8.66543 error: 0.0320244 0.368204%
JET_GroupedNP_3__1up : 8.75989 error: -0.0624288 -0.717782%
JET_GroupedNP_3__1down : 8.636 error: 0.0614607 0.706651%
JET_JER_SINGLE_NP__1up : 8.67236 error: 0.0250934 0.288514%
JET_JvtEfficiency__1down : 8.69746 error: 0 0%
JET_JvtEfficiency__1up : 8.69746 error: 0 0%
JET_fJvtEfficiency__1down : 8.69746 error: 0 0%
JET_fJvtEfficiency__1up : 8.69746 error: 0 0%
MUON_EFF_ISO_STAT__1down : 8.69098 error: 0.00647831 0.0744851%
MUON_EFF_ISO_STAT__1up : 8.70394 error: -0.00648286 -0.0745374%
MUON_EFF_ISO_SYS__1down : 8.65698 error: 0.0404785 0.465407%
MUON_EFF_ISO_SYS__1up : 8.73812 error: -0.0406616 -0.467511%
MUON_EFF_RECO_STAT__1down : 8.66424 error: 0.033221 0.381962%
MUON_EFF_RECO_STAT__1up : 8.73081 error: -0.0333539 -0.38349%
MUON_EFF_RECO_STAT_LOWPT__1down : 8.6953 error: 0.00215633 0.0247927%
MUON_EFF_RECO_STAT_LOWPT__1up : 8.69961 error: -0.00215652 -0.0247948%
MUON_EFF_RECO_SYS__1down : 8.59867 error: 0.0987873 1.13582%
MUON_EFF_RECO_SYS__1up : 8.79763 error: -0.100177 -1.15179%
MUON_EFF_RECO_SYS_LOWPT__1down : 8.69198 error: 0.00547353 0.0629325%
MUON_EFF_RECO_SYS_LOWPT__1up : 8.70293 error: -0.00547489 -0.0629481%
MUON_EFF_TTVA_STAT__1down : 8.68588 error: 0.011574 0.133073%
MUON_EFF_TTVA_STAT__1up : 8.70905 error: -0.0115897 -0.133254%
MUON_EFF_TTVA_SYS__1down : 8.65741 error: 0.0400476 0.460451%
MUON_EFF_TTVA_SYS__1up : 8.73852 error: -0.0410663 -0.472164%
MUON_ID__1down : 8.69931 error: -0.00185197 -0.0212932%
MUON_ID__1up : 8.69505 error: 0.00240394 0.0276396%
MUON_MS__1down : 8.69598 error: 0.00148013 0.017018%
MUON_MS__1up : 8.69533 error: 0.0021273 0.0244588%
MUON_SAGITTA_RESBIAS__1down : 8.69752 error: -5.87289e-05 -0.000675242%
MUON_SAGITTA_RESBIAS__1up : 8.69652 error: 0.000934303 0.0107423%
MUON_SAGITTA_RHO__1down : 8.69619 error: 0.0012676 0.0145744%
MUON_SAGITTA_RHO__1up : 8.69633 error: 0.0011251 0.0129359%
MUON_SCALE__1down : 8.6982 error: -0.000742197 -0.0085335%
MUON_SCALE__1up : 8.69503 error: 0.00242319 0.0278609%
PRW_DATASF__1down : 8.7498 error: -0.0523386 -0.601769%
PRW_DATASF__1up : 8.64185 error: 0.0556087 0.639367%
nominal yeild: 8.69746 sys error up: 0.449952 sys error down: 0.437071
EGamma error up: 0.00274143 down: 0.00042546
Jet error up: 0.228715 down: 0.224144
Electron error up: 0.364275 down: 0.351227
Muon error up: 0.121254 down: 0.119739
