0.0445662
0.0445662
0.0260035
0.0166564
0.016909
0.0142888
0.0163711
0.0268441
0.0550154
0.0550154
0.0445662
0.0445662
0.0236832
0.010081
0.00827016
0.00937885
0.00904206
0.013336
0.0550154
0.0550154
0.0445662
0.0445662
0.0274344
0.0228606
0.0112139
0.0114823
0.0277226
0.0175119
0.0550154
0.0550154
0.0445662
0.0445662
0.00682182
0.0755175
0.0517937
0.0268033
0.0147798
0.0714921
0.0550154
0.0550154
0.0445662
0.0445662
0.155887
0.0713387
0.036201
0.00801142
0.0762169
0.327206
0.0550154
0.0550154
0.0445662
0.0445662
0.105858
0.105858
0.105858
0.0401197
0.0401197
0.0401197
0.0550154
0.0550154
0.0445662
0.0445662
0.105858
0.105858
0.105858
0.0401197
0.0401197
0.0401197
0.0550154
0.0550154
0.0445662
0.0445662
-0.0431122
-0.0431122
-0.0431122
0.0920654
0.0920654
0.0920654
0.0550154
0.0550154
0.0445662
0.0445662
-0.0431122
-0.0431122
-0.0431122
0.0920654
0.0920654
0.0920654
0.0550154
0.0550154
0.0445662
0.0445662
-0.0431122
-0.0431122
-0.0431122
0.0920654
0.0920654
0.0920654
0.0550154
0.0550154
