NOMINAL : 73.2976 error: 0 0%
EG_RESOLUTION_ALL__1down : 0 error: 73.2976 100%
EG_RESOLUTION_ALL__1up : 0 error: 73.2976 100%
EG_SCALE_ALL__1down : 0 error: 73.2976 100%
EG_SCALE_ALL__1up : 0 error: 73.2976 100%
