NOMINAL : 10.0993 error: 0 0%
EG_RESOLUTION_ALL__1down : 10.1017 error: -0.00236847 -0.0234519%
EG_RESOLUTION_ALL__1up : 10.0995 error: -0.000241999 -0.00239619%
EG_SCALE_ALL__1down : 10.0996 error: -0.000309815 -0.00306769%
EG_SCALE_ALL__1up : 10.1014 error: -0.00213121 -0.0211026%
EG_SCALE_AF2__1down : 10.0993 error: 0 0%
EG_SCALE_AF2__1up : 10.0993 error: 0 0%
EL_EFF_ID_TOTAL_1NPCOR_PLUS_UNCOR__1down : 9.70292 error: 0.396382 3.92484%
EL_EFF_ID_TOTAL_1NPCOR_PLUS_UNCOR__1up : 10.511 error: -0.411711 -4.07663%
EL_EFF_Iso_TOTAL_1NPCOR_PLUS_UNCOR__1down : 10.0254 error: 0.073919 0.731922%
EL_EFF_Iso_TOTAL_1NPCOR_PLUS_UNCOR__1up : 10.174 error: -0.074735 -0.740001%
EL_EFF_Reco_TOTAL_1NPCOR_PLUS_UNCOR__1down : 10.0422 error: 0.0571069 0.565454%
EL_EFF_Reco_TOTAL_1NPCOR_PLUS_UNCOR__1up : 10.1567 error: -0.0574112 -0.568467%
JET_EtaIntercalibration_NonClosure__1up : 10.0995 error: -0.000168865 -0.00167205%
JET_EtaIntercalibration_NonClosure__1down : 10.0981 error: 0.00117946 0.0116787%
JET_GroupedNP_1__1up : 10.3072 error: -0.207913 -2.05868%
JET_GroupedNP_1__1down : 9.87693 error: 0.22237 2.20184%
JET_GroupedNP_2__1up : 10.1262 error: -0.026864 -0.265998%
JET_GroupedNP_2__1down : 10.071 error: 0.0283291 0.280506%
JET_GroupedNP_3__1up : 10.1607 error: -0.0613569 -0.607536%
JET_GroupedNP_3__1down : 10.0321 error: 0.0672096 0.665488%
JET_JER_SINGLE_NP__1up : 10.078 error: 0.0212957 0.210863%
JET_JvtEfficiency__1down : 10.0951 error: 0.00420739 0.0416602%
JET_JvtEfficiency__1up : 10.1035 error: -0.00420777 -0.0416639%
JET_fJvtEfficiency__1down : 10.0988 error: 0.00047016 0.00465537%
JET_fJvtEfficiency__1up : 10.0998 error: -0.00047016 -0.00465537%
MUON_EFF_ISO_STAT__1down : 10.0918 error: 0.00748686 0.0741324%
MUON_EFF_ISO_STAT__1up : 10.1068 error: -0.00749209 -0.0741842%
MUON_EFF_ISO_SYS__1down : 10.0523 error: 0.0469705 0.465086%
MUON_EFF_ISO_SYS__1up : 10.1465 error: -0.0471826 -0.467187%
MUON_EFF_RECO_STAT__1down : 10.0606 error: 0.038667 0.382868%
MUON_EFF_RECO_STAT__1up : 10.1381 error: -0.0388215 -0.384398%
MUON_EFF_RECO_STAT_LOWPT__1down : 10.0968 error: 0.00245242 0.024283%
MUON_EFF_RECO_STAT_LOWPT__1up : 10.1018 error: -0.00245266 -0.0242854%
MUON_EFF_RECO_SYS__1down : 9.98534 error: 0.113962 1.12841%
MUON_EFF_RECO_SYS__1up : 10.2148 error: -0.115547 -1.14411%
MUON_EFF_RECO_SYS_LOWPT__1down : 10.093 error: 0.00626585 0.0620424%
MUON_EFF_RECO_SYS_LOWPT__1up : 10.1056 error: -0.00626748 -0.0620586%
MUON_EFF_TTVA_STAT__1down : 10.0859 error: 0.0134241 0.132921%
MUON_EFF_TTVA_STAT__1up : 10.1127 error: -0.0134423 -0.133101%
MUON_EFF_TTVA_SYS__1down : 10.0538 error: 0.0454747 0.450275%
MUON_EFF_TTVA_SYS__1up : 10.1459 error: -0.0466007 -0.461425%
MUON_ID__1down : 10.1014 error: -0.00209734 -0.0207672%
MUON_ID__1up : 10.0971 error: 0.0021594 0.0213816%
MUON_MS__1down : 10.0988 error: 0.000495395 0.00490524%
MUON_MS__1up : 10.0965 error: 0.00280104 0.0277349%
MUON_SAGITTA_RESBIAS__1down : 10.0995 error: -0.000237672 -0.00235335%
MUON_SAGITTA_RESBIAS__1up : 10.0984 error: 0.000898328 0.00889495%
MUON_SAGITTA_RHO__1down : 10.0967 error: 0.00262865 0.026028%
MUON_SAGITTA_RHO__1up : 10.0968 error: 0.00248598 0.0246154%
MUON_SCALE__1down : 10.1002 error: -0.000926021 -0.00916916%
MUON_SCALE__1up : 10.0972 error: 0.00210678 0.0208606%
PRW_DATASF__1down : 10.1602 error: -0.0608986 -0.602998%
PRW_DATASF__1up : 10.0409 error: 0.0583938 0.578196%
nominal yeild: 10.0993 sys error up: 0.499382 sys error down: 0.493522
EGamma error up: 0.00321034 down: 0
Jet error up: 0.218476 down: 0.235034
Electron error up: 0.42236 down: 0.407239
Muon error up: 0.139798 down: 0.138091
